{
  "name": "rat",
  "plural": "rats",
  "base": "PersistedModel",
  "idInjection": true,
  "options": {
    "validateUpsert": true
  },
  "properties": {
    "ratName": {
      "type": "string",
      "required": true,
      "default": "ratName"
    },
    "age": {
      "type": "any",
      "required": true
    }
  },
  "validations": [],
  "relations": {},
  "acls": [],
  "methods": {}
}
